{
	"textures": [
		"conjurer_illager:red_playing_card_0",
		"conjurer_illager:playing_card_1",
		"conjurer_illager:red_playing_card_0",
		"conjurer_illager:playing_card_1",
		"conjurer_illager:red_playing_card_0",
		"conjurer_illager:playing_card_1",
		"conjurer_illager:red_playing_card_0",
		"conjurer_illager:playing_card_1"
	]
}